<?xml version="1.0" encoding="UTF-8" standalone="no"?>
<!-- Created with Inkscape (http://www.inkscape.org/) -->

<svg width="16" height="16" viewBox="0 0 16 16" version="1.1" id="svg5"
   xmlns="http://www.w3.org/2000/svg"
   xmlnsSvg="http://www.w3.org/2000/svg">
   <defs id="defs2" />
   <g id="layer1">
      <circle style="fill:#10a8e2;stroke-width:5;stroke-linecap:round;stroke-linejoin:round;paint-order:stroke fill markers;stop-color:#000000" id="path846" cx="8" cy="8" r="7" />
   </g>
</svg>
